<?xml version="1.0" encoding="UTF-8" standalone="no"?>
<svg
   xmlns:dc="http://purl.org/dc/elements/1.1/"
   xmlns:cc="http://creativecommons.org/ns#"
   xmlns:rdf="http://www.w3.org/1999/02/22-rdf-syntax-ns#"
   xmlns:svg="http://www.w3.org/2000/svg"
   xmlns="http://www.w3.org/2000/svg"
   xmlns:sodipodi="http://sodipodi.sourceforge.net/DTD/sodipodi-0.dtd"
   xmlns:inkscape="http://www.inkscape.org/namespaces/inkscape"
   width="182.31705mm"
   height="115.49583mm"
   viewBox="0 0 182.31705 115.49583"
   version="1.1"
   id="svg8"
   sodipodi:docname="denkblase.svg"
   inkscape:version="1.0.2 (e86c870879, 2021-01-15)">
  <defs
     id="defs2" />
  <sodipodi:namedview
     id="base"
     pagecolor="#ffffff"
     bordercolor="#666666"
     borderopacity="1.0"
     inkscape:pageopacity="0.0"
     inkscape:pageshadow="2"
     inkscape:zoom="0.52672904"
     inkscape:cx="305.87401"
     inkscape:cy="379.95655"
     inkscape:document-units="mm"
     inkscape:current-layer="layer1"
     inkscape:document-rotation="0"
     showgrid="false"
     inkscape:window-width="1440"
     inkscape:window-height="871"
     inkscape:window-x="0"
     inkscape:window-y="0"
     inkscape:window-maximized="1" />
  <metadata
     id="metadata5">
    <rdf:RDF>
      <cc:Work
         rdf:about="">
        <dc:format>image/svg+xml</dc:format>
        <dc:type
           rdf:resource="http://purl.org/dc/dcmitype/StillImage" />
        <dc:title></dc:title>
      </cc:Work>
    </rdf:RDF>
  </metadata>
  <g
     inkscape:label="Layer 1"
     inkscape:groupmode="layer"
     id="layer1"
     transform="translate(-19.413957,-21.796464)">
    <ellipse
       style="fill:#000000;stroke:#e3deb1;stroke-width:5.29167;stroke-opacity:0.00142984;stop-color:#000000"
       id="path833"
       cx="108.51914"
       cy="77.377792"
       rx="86.459351"
       ry="52.935493" />
    <ellipse
       style="fill:#000000;fill-opacity:1;stroke:#e3deb1;stroke-width:5.29167;stroke-opacity:0.00142984;stop-color:#000000"
       id="path867"
       cx="172.22681"
       cy="121.64345"
       rx="9.3210669"
       ry="5.0639672" />
    <ellipse
       style="fill:#000000;fill-opacity:1;stroke:#e3deb1;stroke-width:4.62253;stroke-opacity:0.00142984;stop-color:#000000"
       id="path869"
       cx="195.00276"
       cy="132.25613"
       rx="4.4169817"
       ry="2.7248893" />
    <ellipse
       style="fill:#000000;fill-opacity:1;stroke:#e3deb1;stroke-width:5.29167;stroke-opacity:0.00142984;stop-color:#000000"
       id="path871"
       cx="184.98459"
       cy="127.83399"
       rx="6.0467887"
       ry="3.3224025" />
  </g>
</svg>
